{
  "credit": "Made with Blockbench",
  "parent": "block/thin_block",
  "textures": {
    "particle": "custom_discs:block/gramophone",
    "body": "custom_discs:block/gramophone"
  },
  "elements": [
    {
      "from": [1, 4, 1],
      "to": [15, 12, 15],
      "faces": {
        "north": {"uv": [0.5, 10, 7.5, 14], "texture": "#body"},
        "east": {"uv": [8.5, 10, 15.5, 14], "texture": "#body"},
        "south": {"uv": [8.5, 10, 15.5, 14], "texture": "#body"},
        "west": {"uv": [8.5, 10, 15.5, 14], "texture": "#body"},
        "up": {"uv": [1, 1, 15, 15], "texture": "#inside"},
        "down": {"uv": [8.5, 0.5, 15.5, 7.5], "texture": "#body"}
      }
    },
    {
      "from": [14, 11, 7],
      "to": [14, 18, 8],
      "rotation": {"angle": 22.5, "axis": "x", "origin": [14.5, 12, 7.5]},
      "faces": {
        "east": {"uv": [0, 0, 0.5, 3.5], "texture": "#body"},
        "west": {"uv": [0, 0, 0.5, 3.5], "texture": "#body"}
      }
    },
    {
      "from": [1, 12, 1],
      "to": [15, 14, 15],
      "rotation": {"angle": 45, "axis": "x", "origin": [8, 12, 15]},
      "faces": {
        "north": {"uv": [0.5, 9, 7.5, 10], "texture": "#body"},
        "east": {"uv": [8.5, 9, 15.5, 10], "texture": "#body"},
        "south": {"uv": [8.5, 9, 15.5, 10], "texture": "#body"},
        "west": {"uv": [8.5, 9, 15.5, 10], "texture": "#body"},
        "up": {"uv": [0.5, 0.5, 7.5, 7.5], "texture": "#body"},
        "down": {"uv": [8.5, 0.5, 15.5, 7.5], "texture": "#body"}
      }
    },
    {
      "from": [1, 0, 1],
      "to": [3, 1, 3],
      "faces": {
        "north": {"uv": [6.5, 15.5, 7.5, 16], "texture": "#body"},
        "east": {"uv": [6.5, 15.5, 7.5, 16], "texture": "#body"},
        "south": {"uv": [6.5, 15.5, 7.5, 16], "texture": "#body"},
        "west": {"uv": [6.5, 15.5, 7.5, 16], "texture": "#body"},
        "up": {"uv": [6.5, 15.5, 7.5, 16], "texture": "#body"},
        "down": {"uv": [6.5, 15.5, 7.5, 16], "texture": "#body"}
      }
    },
    {
      "from": [13, 2, 1],
      "to": [15, 4, 3],
      "rotation": {"angle": 0, "axis": "y", "origin": [8, 0, 8]},
      "faces": {
        "north": {"uv": [8.5, 14, 9.5, 15], "texture": "#body"},
        "east": {"uv": [6.5, 14, 7.5, 15], "texture": "#body"},
        "south": {"uv": [8.5, 14, 9.5, 15], "texture": "#body"},
        "west": {"uv": [6.5, 14, 7.5, 15], "texture": "#body"},
        "down": {"uv": [0.5, 15, 1.5, 14], "rotation": 180, "texture": "#body"}
      }
    },
    {
      "from": [1, 2, 1],
      "to": [3, 4, 3],
      "rotation": {"angle": 0, "axis": "y", "origin": [8, 0, 8]},
      "faces": {
        "north": {"uv": [6.5, 14, 7.5, 15], "texture": "#body"},
        "east": {"uv": [8.5, 14, 9.5, 15], "texture": "#body"},
        "south": {"uv": [6.5, 14, 7.5, 15], "texture": "#body"},
        "west": {"uv": [8.5, 14, 9.5, 15], "texture": "#body"},
        "down": {"uv": [0.5, 15, 1.5, 14], "rotation": 270, "texture": "#body"}
      }
    },
    {
      "from": [1, 2, 13],
      "to": [3, 4, 15],
      "rotation": {"angle": 0, "axis": "y", "origin": [8, 0, 8]},
      "faces": {
        "north": {"uv": [8.5, 14, 9.5, 15], "texture": "#body"},
        "east": {"uv": [6.5, 14, 7.5, 15], "texture": "#body"},
        "south": {"uv": [8.5, 14, 9.5, 15], "texture": "#body"},
        "west": {"uv": [6.5, 14, 7.5, 15], "texture": "#body"},
        "down": {"uv": [0.5, 15, 1.5, 14], "texture": "#body"}
      }
    },
    {
      "from": [13, 2, 13],
      "to": [15, 4, 15],
      "rotation": {"angle": 0, "axis": "y", "origin": [8, 0, 8]},
      "faces": {
        "north": {"uv": [6.5, 14, 7.5, 15], "texture": "#body"},
        "east": {"uv": [8.5, 14, 9.5, 15], "texture": "#body"},
        "south": {"uv": [6.5, 14, 7.5, 15], "texture": "#body"},
        "west": {"uv": [8.5, 14, 9.5, 15], "texture": "#body"},
        "down": {"uv": [0.5, 15, 1.5, 14], "rotation": 90, "texture": "#body"}
      }
    },
    {
      "from": [2, 1, 2],
      "to": [3, 2, 3],
      "faces": {
        "north": {"uv": [6.5, 15, 7, 15.5], "texture": "#body"},
        "east": {"uv": [6.5, 15, 7, 15.5], "texture": "#body"},
        "south": {"uv": [6.5, 15, 7, 15.5], "texture": "#body"},
        "west": {"uv": [6.5, 15, 7, 15.5], "texture": "#body"}
      }
    },
    {
      "from": [13, 0, 1],
      "to": [15, 1, 3],
      "faces": {
        "north": {"uv": [6.5, 15.5, 7.5, 16], "texture": "#body"},
        "east": {"uv": [6.5, 15.5, 7.5, 16], "texture": "#body"},
        "south": {"uv": [6.5, 15.5, 7.5, 16], "texture": "#body"},
        "west": {"uv": [6.5, 15.5, 7.5, 16], "texture": "#body"},
        "up": {"uv": [6.5, 15.5, 7.5, 16], "texture": "#body"},
        "down": {"uv": [6.5, 15.5, 7.5, 16], "texture": "#body"}
      }
    },
    {
      "from": [13, 1, 2],
      "to": [14, 2, 3],
      "rotation": {"angle": 0, "axis": "y", "origin": [8, 0, 8]},
      "faces": {
        "north": {"uv": [6.5, 15, 7, 15.5], "texture": "#body"},
        "east": {"uv": [6.5, 15, 7, 15.5], "texture": "#body"},
        "south": {"uv": [6.5, 15, 7, 15.5], "texture": "#body"},
        "west": {"uv": [6.5, 15, 7, 15.5], "texture": "#body"}
      }
    },
    {
      "from": [13, 1, 13],
      "to": [14, 2, 14],
      "faces": {
        "north": {"uv": [6.5, 15, 7, 15.5], "texture": "#body"},
        "east": {"uv": [6.5, 15, 7, 15.5], "texture": "#body"},
        "south": {"uv": [6.5, 15, 7, 15.5], "texture": "#body"},
        "west": {"uv": [6.5, 15, 7, 15.5], "texture": "#body"}
      }
    },
    {
      "from": [13, 0, 13],
      "to": [15, 1, 15],
      "faces": {
        "north": {"uv": [6.5, 15.5, 7.5, 16], "texture": "#body"},
        "east": {"uv": [6.5, 15.5, 7.5, 16], "texture": "#body"},
        "south": {"uv": [6.5, 15.5, 7.5, 16], "texture": "#body"},
        "west": {"uv": [6.5, 15.5, 7.5, 16], "texture": "#body"},
        "up": {"uv": [6.5, 15.5, 7.5, 16], "texture": "#body"},
        "down": {"uv": [6.5, 15.5, 7.5, 16], "texture": "#body"}
      }
    },
    {
      "from": [1, 0, 13],
      "to": [3, 1, 15],
      "faces": {
        "north": {"uv": [6.5, 15.5, 7.5, 16], "texture": "#body"},
        "east": {"uv": [6.5, 15.5, 7.5, 16], "texture": "#body"},
        "south": {"uv": [6.5, 15.5, 7.5, 16], "texture": "#body"},
        "west": {"uv": [6.5, 15.5, 7.5, 16], "texture": "#body"},
        "up": {"uv": [6.5, 15.5, 7.5, 16], "texture": "#body"},
        "down": {"uv": [6.5, 15.5, 7.5, 16], "texture": "#body"}
      }
    },
    {
      "from": [2, 1, 13],
      "to": [3, 2, 14],
      "faces": {
        "north": {"uv": [6.5, 15, 7, 15.5], "texture": "#body"},
        "east": {"uv": [6.5, 15, 7, 15.5], "texture": "#body"},
        "south": {"uv": [6.5, 15, 7, 15.5], "texture": "#body"},
        "west": {"uv": [6.5, 15, 7, 15.5], "texture": "#body"}
      }
    }
  ]
}
