[
  {
    "function":"minecraft:set_custom_model_data",
    "floats": {
      "values":[271828],
      "mode":"replace_all"
    },
    "conditions": [
      {
        "condition":"minecraft:entity_properties",
        "entity":"this",
        "predicate":{
          "equipment":{
            "mainhand":{
              "components":{
                "minecraft:custom_model_data":{
                  "floats":[271829]
                }
              }
            }
          }
        }
      }
    ]
  },
  {
    "function":"minecraft:set_custom_model_data",
    "floats": {
      "values":[271829],
      "mode":"replace_all"
    },
    "conditions": [
      {
        "condition":"minecraft:entity_properties",
        "entity":"this",
        "predicate":{
          "equipment":{
            "mainhand":{
              "components":{
                "minecraft:custom_model_data":{
                  "floats":[271828]
                }
              }
            }
          }
        }
      }
    ]
  }
]

