{
  "model": {
    "type": "range_dispatch",
    "property": "custom_model_data",
    "entries": [
      { "threshold": 271828, "model": { "type": "model", "model": "grabeltone:item/nigirizushi" } }
    ],
    "fallback": {
      "type": "minecraft:model",
      "model": "minecraft:item/cooked_salmon"
    }
  }
}

