{
  "model": {
    "type": "range_dispatch",
    "property": "custom_model_data",
    "entries": [
      { "threshold": 271828, "model": { "type": "model", "model": "wishlist:item/egg_pink" } },
      { "threshold": 271829, "model": { "type": "model", "model": "wishlist:item/egg_orange" } },
      { "threshold": 271830, "model": { "type": "model", "model": "wishlist:item/egg_yellow" } },
      { "threshold": 271831, "model": { "type": "model", "model": "wishlist:item/egg_green" } },
      { "threshold": 271832, "model": { "type": "model", "model": "wishlist:item/egg_cyan" } },
      { "threshold": 271833, "model": { "type": "model", "model": "wishlist:item/egg_blue" } },
      { "threshold": 271834, "model": { "type": "model", "model": "grabeltone:item/ticket" } },
      { "threshold": 271835, "model": { "type": "model", "model": "grabeltone:item/contract" } }
    ],
    "fallback": {
      "type": "minecraft:model",
      "model": "minecraft:item/egg"
    }
  }
}
