{
  "model": {
    "type": "range_dispatch",
    "property": "custom_model_data",
    "entries": [
      { "threshold": 271828, "model": { "type": "model", "model": "grabeltone:item/cosmo_sword" } },
      { "threshold": 271829, "model": { "type": "model", "model": "grabeltone:item/spongey_sword" } },
      { "threshold": 271830, "model": { "type": "model", "model": "grabeltone:item/echoing_blade" } }
    ],
    "fallback": {
      "type": "minecraft:model",
      "model": "minecraft:item/netherite_sword"
    }
  }
}
