{
  "model": {
    "type": "range_dispatch",
    "property": "custom_model_data",
    "entries": [
      { "threshold": 271845, "model": { "type": "model", "model": "wishlist:item/speech" } }
    ],
    "fallback": {
      "type": "minecraft:model",
      "model": "minecraft:item/oak_sign"
    }
  }
}

