{
  "pools": [
    {
      "rolls": 1,
      "entries": [
        {
          "type": "minecraft:item",
          "name": "minecraft:gold_sword",
          "functions": [
            {
              "function": "minecraft:set_components",
              "components": {
                "minecraft:custom_name": "{\"translate\": \"item.wishlist.gold_stiletto\", \"italic\": false}",
                "minecraft:custom_model_data": { "floats": [ 146635 ] },
                "minecraft:custom_data": {
                  "wishlist_stiletto": true
                },
                "minecraft:attribute_modifiers": {
                  "modifiers": [
                    {
                      "type": "minecraft:generic.attack_damage",
                      "name": "Custom Damage",
                      "amount": 2,
                      "operation": "add_value",
                      "uuid": [
                        271828,
                        314159,
                        0,
                        2
                      ],
                      "slot": "mainhand"
                    }
                  ]
                }
              }
            }
          ]
        }
      ]
    }
  ]
}