{
  "display": {
    "icon": {
      "id": "minecraft:paper",
      "components": {
        "minecraft:custom_model_data": { "floats": [ 271833 ] }
      }
    },
    "title": {"translate": "grabeltone.advancements.trade_quips.title"},
    "description": {"translate": "grabeltone.advancements.trade_quips.description"},
    "show_toast": true,
    "announce_to_chat": true
  },
  "parent": "grabeltone:root",
  "criteria": {
    "trade_with_quip_exchanger": {
      "trigger": "minecraft:villager_trade",
      "conditions" : {
        "villager": {
          "nbt": "{Tags:[grabeltone.quip_trader]}"
        }
      }
    }
  }
}

