{
  "display": {
    "icon": {
      "id": "minecraft:paper",
      "components": {
        "minecraft:custom_model_data": { "floats": [ 271830 ] }
      }
    },
    "title": {"translate": "grabeltone.advancements.give_banknote_3.title"},
    "description": {"translate": "grabeltone.advancements.give_banknote_3.description"},
    "frame": "challenge",
    "show_toast": true,
    "announce_to_chat": true
  },
  "parent": "grabeltone:the_one_percent",
  "criteria": {
    "give_pink_banknote": {
      "trigger": "minecraft:thrown_item_picked_up_by_entity",
      "conditions": {
        "item": {
          "items":["minecraft:paper"],
          "components":{
            "minecraft:custom_model_data": { "floats": [ 271830 ] }
          }
        },
        "entity": [
          {
            "condition": "minecraft:entity_properties",
            "predicate": { "type": "minecraft:player" },
            "entity": "this"
          }
        ]
      }
    }
  }
}

