{
  "type": "minecraft:crafting_shaped",
  "category": "equipment",
  "pattern": [
    "121",
    "222",
    "121"
  ],
  "key": {
    "1": "#minecraft:wool_carpets",
    "2": "minecraft:feather"
  },
  "result": {
    "id": "minecraft:carrot_on_a_stick",
    "count": 1,
    "components": {
      "minecraft:custom_name": "{\"translate\":\"item.wishlist.cushion\",\"italic\":false}",
      "minecraft:custom_model_data": { "floats": [ 271846 ] },
      "minecraft:unbreakable":{"show_in_tooltip":false},
      "minecraft:custom_data":{"wishlist_magic":{"id":"cushion:block","args":{}}}
    }
  }
}

