# piglin/anger.mcfunction

data modify storage wishlist:args uuid \
        set from storage wishlist:args brain.memories."minecraft:angry_at"
function wishlist:find_player_by_uuid
data modify storage wishlist:args reason set value anger_piglin
execute as @a[tag=wishlist.match] run function better_gossip:do_bad
tag @a remove wishlist.match


