{
  "condition": "minecraft:entity_properties",
  "entity": "this",
  "predicate": {
    "equipment": {
      "mainhand": {
        "predicates": {
          "minecraft:enchantments": [
            {
              "enchantment": "minecraft:unbreaking",
              "levels": 1
            }
          ]
        }
      }
    }
  }
}
