{
  "condition": "minecraft:entity_properties",
  "entity": "this",
  "predicate": {
    "equipment": {
      "mainhand": {
        "components": {
          "minecraft:unbreakable": {}
        }
      }
    }
  }
}

