{
  "display": {
    "icon": {
      "item": "minecraft:item_frame",
      "nbt": "{CustomModelData:271828}"
    },
    "title": {"translate":"wishlist.advancements.radio_amateur.title"},
    "description": {"translate":"wishlist.advancements.radio_amateur.description"},
    "show_toast": true,
    "announce_to_chat": true
  },
  "parent": "wishlist:root",
  "criteria": {
    "example": {
      "trigger": "minecraft:item_used_on_block",
      "conditions": {
        "location": [
          {
            "condition": "minecraft:match_tool",
            "predicate": {
              "items": [ "minecraft:item_frame" ],
              "nbt": "{EntityTag:{Item:{tag:{wishlist:{custom_block:{id:radio}}}}}}"
            }
          }
        ]
      }
    }
  }
}
