{
  "display": {
    "icon": {
      "item": "minecraft:item_frame",
      "nbt": "{CustomModelData:271828}"
    },
    "title": {"translate":"wishlist.advancements.rumor_has_it.title"},
    "description": {"translate":"wishlist.advancements.rumor_has_it.description"},
    "show_toast": true,
    "announce_to_chat": true
  },
  "parent": "wishlist:radio_amateur",
  "criteria": {
    "hear_about_yourself": {
      "trigger": "minecraft:impossible"
    }
  }
}


