{
  "pools": [
    {
      "rolls": 1,
      "entries": [
        {
          "type": "minecraft:item",
          "name": "minecraft:item_frame",
          "functions": [
            {
              "function": "minecraft:set_name",
              "name": {
                "translate":"block.wishlist.rack",
                "italic": false
              }
            },
            {
              "function": "minecraft:set_components",
              "components": {
                "minecraft:custom_model_data": { "floats": [ 271853 ] },
                "minecraft:entity_data":{
                  "id":"minecraft:item_frame",
                  "Tags":["wishlist.block","rack"]
                }
              }
            }
          ]
        }
      ]
    }
  ]
}
