{
  "criteria": {
    "example": {
      "trigger": "minecraft:player_interacted_with_entity",
      "conditions": {
        "entity": {
          "type": "minecraft:interaction",
          "nbt": "{Tags:[wishlist.lock]}"
        }
      }
    }
  },
  "rewards": {
    "function": "lock:unlock"
  }
}

