{
  "credit": "Made with Blockbench",
  "texture_size": [8, 8],
  "elements": [
    {
      "from": [4, -6, 4],
      "to": [12, 2, 8],
      "color": 5,
      "faces": {
        "north": {"uv": [0, 0, 16, 16], "texture": "#layer0"},
        "east": {"uv": [0, 0, 16, 16], "texture": "#layer0"},
        "south": {"uv": [0, 0, 16, 16], "texture": "#layer0"},
        "west": {"uv": [0, 0, 16, 16], "texture": "#layer0"},
        "up": {"uv": [0, 0, 16, 16], "texture": "#layer0"},
        "down": {"uv": [0, 0, 16, 16], "texture": "#layer0"}
      }
    }
  ]
}
