# trade_with_villager.mcfunction

data modify storage wishlist:args reason set value trade_with_villager
function better_gossip:do_good
advancement revoke @s only better_gossip:trade_with_villager



