{
  "criteria": {
    "example": {
      "trigger": "minecraft:tick",
      "conditions": {
        "player": {
          "location": {
            "dimension": "wishlist:sky",
            "position": {
              "y": {
                "min": -2000000000,
                "max": 0
              }
            }
          }
        }
      }
    }
  },
  "rewards": {
    "function": "end_above:teleport"
  }
}

