{
  "criteria": {
    "example": {
      "trigger": "minecraft:inventory_changed",
      "conditions": {
        "items": [
          {
            "items":"minecraft:stick"
          }
        ]
      }
    }
  },
  "rewards": {
    "recipes": [
      "sledgehammer:wooden_sledgehammer"
    ]
  }
}


