{
  "pools": [
    {
      "rolls": 1,
      "entries": [
        {
          "type": "minecraft:item",
          "name": "minecraft:suspicious_stew",
          "functions": [
            {
              "function": "minecraft:set_name",
              "name": {
                "translate":"grabeltone.items.bottle_of_wine.name",
                "italic": false
              }
            },
            {
              "function": "minecraft:set_stew_effect",
              "effects": [
                {
                  "type": "minecraft:nausea",
                  "duration": 30
                }
              ]
            },
            {
              "function": "minecraft:set_nbt",
              "tag": "{CustomModelData:271837}"
            }
          ]
        }
      ]
    }
  ]
}
