{
  "pools": [
    {
      "rolls": 1,
      "entries": [
        {
          "type": "minecraft:item",
          "name": "minecraft:bread",
          "functions": [
            {
              "function": "minecraft:set_name",
              "name": {
                "translate":"grabeltone.items.pretzel.name",
                "italic": false
              }
            },
            {
              "function": "minecraft:set_nbt",
              "tag": "{CustomModelData:271832}"
            }
          ]
        }
      ]
    }
  ]
}
