{
  "pools": [
    {
      "rolls": 1,
      "entries": [
        {
          "type": "minecraft:item",
          "name": "minecraft:item_frame",
          "functions": [
            {
              "function": "minecraft:set_name",
              "name": {
                "translate": "Summon Bartender",
                "italic": false
              }
            },
            {
              "function": "minecraft:set_lore",
              "mode": "replace_all",
              "lore": [
                {
                  "text": "minecraft:villager",
                  "italic": false,
                  "color": "gray"
                }
              ]
            },
            {
              "function": "minecraft:set_components",
              "components": {
                "minecraft:custom_model_data": { "floats": [ 271870 ] },
                "minecraft:entity_data": {
                  "id": "minecraft:item_frame",
                  "Tags": [
                    "wishlist.summon"
                  ],
                  "Item": {
                    "id": "minecraft:item_frame",
                    "count": 1,
                    "components": {
                      "minecraft:custom_data": {
                        "id": "minecraft:villager",
                        "data": {
                          "NoAI": true,
                          "Invulnerable": true,
                          "Tags": [
                            "wishlist.look_alive",
                            "drink_trader"
                          ],
                          "ArmorItems": [
                            {},
                            {},
                            {},
                            {
                              "id": "minecraft:stone_button",
                              "count": 1,
                              "components": {
                                "minecraft:custom_model_data": { "floats": [ 271831 ] }
                              }
                            }
                          ],
                          "ArmorDropChances": [
                            0.0,
                            0.0,
                            0.0,
                            0.0
                          ],
                          "VillagerData": {
                            "Offers": {
                              "Recipes": []
                            },
                            "profession": "minecraft:none"
                          }
                        }
                      }
                    }
                  }
                }
              }
            }
          ]
        }
      ]
    }
  ]
}
