{
  "display": {
    "icon": {
      "id": "minecraft:player_head",
      "components": {
        "minecraft:profile":{
          "properties":[
            {
              "name":"textures",
              "value":"eyJ0ZXh0dXJlcyI6eyJTS0lOIjp7InVybCI6Imh0dHA6Ly90ZXh0dXJlcy5taW5lY3JhZnQubmV0L3RleHR1cmUvNDBjYzBhMTI1Nzc4OThlNzE2N2M0M2NmOWZlOGNiMjg5NTYzOTIxYjcwOTQ2MDEyYTYwODkzY2FiNzZlNTQ5In19fQ=="
            }
          ]
        }
      }
    },
    "title": {"translate":"wishlist.advancements.restock_employee.title"},
    "description": {"translate":"wishlist.advancements.restock_employee.description"},
    "show_toast": true,
    "announce_to_chat": true
  },
  "parent": "wishlist:hire_employee",
  "criteria": {
    "trade_with_hired_trader": {
      "trigger": "minecraft:impossible"
    }
  }
}
