{
  "credit": "Made with Blockbench",
  "parent": "block/thin_block",
  "textures": {
    "1": "wishlist:block/statue_2",
    "2": "minecraft:block/stone",
    "particle": "radio"
  },
  "elements": [
    {
      "from": [0, 0, 0],
      "to": [16, 16, 16],
      "faces": {
        "north": {"uv": [0, 0, 16, 16], "texture": "#2"},
        "east": {"uv": [16, 0, 0, 16], "texture": "#1"},
        "south": {"uv": [0, 0, 16, 16], "texture": "#2"},
        "west": {"uv": [0, 0, 16, 16], "texture": "#1"},
        "up": {"uv": [0, 0, 16, 16], "texture": "#2"},
        "down": {"uv": [0, 0, 16, 16], "texture": "#2"}
      }
    }
  ]
}
