{
  "credit": "Made with Blockbench",
  "parent": "minecraft:block/block",
  "textures": {
    "0": "wishlist:block/villager_eyeshade"
  },
  "elements": [
    {
      "from": [0, 3, 0],
      "to": [16, 5, 16],
      "faces": {
        "north": {"uv": [0, 0, 8, 1], "texture": "#0"},
        "east": {"uv": [0, 2, 8, 3], "texture": "#0"},
        "south": {"uv": [0, 1, 8, 2], "texture": "#0"},
        "west": {"uv": [0, 3, 8, 4], "texture": "#0"}
      }
    },
    {
      "from": [0, 4, -4],
      "to": [16, 4, 0],
      "rotation": {"angle": -45, "axis": "x", "origin": [8, 4, 0]},
      "faces": {
        "up": {"uv": [0, 4, 8, 8], "texture": "#0"},
        "down": {"uv": [0, 4, 8, 8], "texture": "#0"}
      }
    }
  ],
  "display": {
    "gui": {
      "rotation": [ 30, 225, 0 ],
      "translation": [ 0, 0, 0],
      "scale":[ 0.5, 0.6, 0.5 ]
    }
  }
}
