{
  "display": {
    "icon": {
      "id": "minecraft:leather_helmet"
    },
    "title": {"translate":"wishlist.advancements.swap_hat.title"},
    "description": {"translate":"wishlist.advancements.swap_hat.description"},
    "show_toast": true,
    "announce_to_chat": true
  },
  "parent": "wishlist:root",
  "criteria": {
    "example": {
      "trigger": "minecraft:impossible"
    }
  }
}

