{
  "parent": "block/thin_block",
  "textures": {
    "texture": "better_recipes:block/cooking_press"
  },
  "display": {
    "gui": {
      "rotation": [ 30, -135, 0 ],
      "translation": [ 0, 3, 0 ],
      "scale": [ 1, 1, 1 ]
    },
    "fixed": {
      "rotation": [ 0, 0, 0 ],
      "translation": [ 0, 4, 0],
      "scale":[ 1, 1, 1 ]
    },
    "ground": {
      "rotation": [ 0, 0, 0 ],
      "translation": [ 0, 3, 0 ],
      "scale": [ 0.5, 0.5, 0.5 ]
    },
    "firstperson_righthand": {
      "rotation": [ 0, 180, 0 ],
      "translation": [ 0, 3, 0 ],
      "scale": [ 0.5, 0.5, 0.5 ]
    },
    "thirdperson_righthand": {
      "rotation": [ 45, 45, 0 ],
      "translation": [ 0, 3, 0 ],
      "scale": [ 0.5, 0.5, 0.5 ]
    }
  },
  "elements": [
    {
      "from": [ 4, 0, 4 ],
      "to": [ 12, 8, 12 ],
      "faces": {
        "down":  { "uv": [  0,  0,  8,  8 ], "texture": "#texture", "cullface": "down" },
        "up":    { "uv": [  8,  0, 16,  8 ], "texture": "#texture" },
        "north": { "uv": [  0,  8,  8, 16 ], "texture": "#texture" },
        "south": { "uv": [  8,  8, 16, 16 ], "texture": "#texture" },
        "west":  { "uv": [  8,  8, 16, 16 ], "texture": "#texture" },
        "east":  { "uv": [  8,  8, 16, 16 ], "texture": "#texture" }
      }
    }
  ]
}
