{
  "credit": "Made with Blockbench",
  "parent": "block/thin_block",
  "textures": {
    "0": "better_recipes:block/cooking_plate",
    "1": "better_recipes:block/cooking_pan",
    "particle": "better_recipes:block/cooking_plate"
  },
  "elements": [
    {
      "from": [0, 0, 0],
      "to": [16, 14, 16],
      "faces": {
        "north": {"uv": [0, 9, 8, 16], "texture": "#0"},
        "east": {"uv": [0, 9, 8, 16], "texture": "#0"},
        "south": {"uv": [0, 9, 8, 16], "texture": "#0"},
        "west": {"uv": [0, 9, 8, 16], "texture": "#0"},
        "up": {"uv": [0, 0, 8, 8], "texture": "#0"},
        "down": {"uv": [8, 0, 16, 8], "texture": "#0"}
      }
    },
    {
      "from": [4, 14, 4],
      "to": [12, 15, 12],
      "faces": {
        "north": {"uv": [0, 8, 8, 9], "texture": "#1"},
        "east": {"uv": [0, 8, 8, 9], "texture": "#1"},
        "south": {"uv": [0, 8, 8, 9], "texture": "#1"},
        "west": {"uv": [0, 8, 8, 9], "texture": "#1"},
        "up": {"uv": [0, 0, 8, 8], "texture": "#1"},
        "down": {"uv": [8, 0, 16, 8], "texture": "#1"}
      }
    },
    {
      "from": [-1, 15, 7],
      "to": [5, 16, 9],
      "faces": {
        "north": {"uv": [0, 12, 6, 13], "texture": "#1"},
        "east": {"uv": [8, 12, 10, 13], "texture": "#1"},
        "south": {"uv": [0, 12, 6, 13], "texture": "#1"},
        "west": {"uv": [8, 10, 10, 11], "texture": "#1"},
        "up": {"uv": [0, 10, 6, 12], "texture": "#1"},
        "down": {"uv": [0, 10, 6, 12], "texture": "#1"}
      }
    }
  ]
}
