{
  "parent": "block/thin_block",
  "credit": "Made with Blockbench",
  "textures": {
    "0": "better_recipes:block/cooking_still",
    "particle": "better_recipes:block/cooking_still"
  },
  "elements": [
    {
      "from": [4, 0, 4],
      "to": [12, 12, 12],
      "faces": {
        "north": {"uv": [0, 4, 8, 16], "texture": "#0"},
        "east": {"uv": [0, 4, 8, 16], "texture": "#0"},
        "south": {"uv": [0, 4, 8, 16], "texture": "#0"},
        "west": {"uv": [0, 4, 8, 16], "texture": "#0"},
        "up": {"uv": [8, 8, 16, 16], "texture": "#0"},
        "down": {"uv": [8, 0, 16, 8], "texture": "#0"}
      }
    },
    {
      "from": [6, 12, 6],
      "to": [10, 16, 10],
      "faces": {
        "north": {"uv": [0, 0, 4, 4], "texture": "#0"},
        "east": {"uv": [0, 0, 4, 4], "texture": "#0"},
        "south": {"uv": [0, 0, 4, 4], "texture": "#0"},
        "west": {"uv": [0, 0, 4, 4], "texture": "#0"},
        "up": {"uv": [10, 10, 14, 14], "texture": "#0"},
        "down": {"uv": [10, 2, 14, 6], "texture": "#0"}
      }
    },
    {
      "from": [2, 11, 8],
      "to": [12, 12, 9],
      "rotation": {"angle": 22.5, "axis": "z", "origin": [0, 0, 0]},
      "faces": {
        "north": {"uv": [0, 11, 10, 12], "texture": "#0"},
        "east": {"uv": [12, 3, 13, 4], "texture": "#0"},
        "south": {"uv": [1, 9, 11, 10], "texture": "#0"},
        "west": {"uv": [12, 3, 13, 4], "texture": "#0"},
        "up": {"uv": [2, 10, 12, 11], "texture": "#0"},
        "down": {"uv": [2, 10, 12, 11], "texture": "#0"}
      }
    }
  ]
}
