{
  "credit": "Made with Blockbench",
  "parent": "block/thin_block",
  "textures": {
    "0": "better_recipes:block/cooking_cask",
    "particle": "better_recipes:block/cooking_cask"
  },
  "elements": [
    {
      "from": [1, 0, 1],
      "to": [15, 16, 15],
      "faces": {
        "north": {"uv": [8.5, 0, 15.5, 16], "texture": "#0"},
        "east": {"uv": [8.5, 0, 15.5, 16], "texture": "#0"},
        "south": {"uv": [8.5, 0, 15.5, 16], "texture": "#0"},
        "west": {"uv": [8.5, 0, 15.5, 16], "texture": "#0"},
        "up": {"uv": [0.5, 1, 7.5, 15], "texture": "#0"},
        "down": {"uv": [0.5, 1, 7.5, 15], "texture": "#0"}
      }
    }
  ]
}
