{
  "pools": [
    {
      "rolls": 1,
      "entries": [
        {
          "type": "minecraft:item",
          "name": "minecraft:carrot_on_a_stick",
          "functions": [
            {
              "function": "minecraft:set_name",
              "name": {
                "translate":"item.wishlist.music_disc_woodland_whispers",
                "color": "aqua",
                "italic": false
              }
            },
            {
              "function": "minecraft:set_components",
              "components": {
                "minecraft:custom_model_data": { "floats": [ 271849 ] },
                "minecraft:jukebox_playable": {
                  "song":"custom_discs:woodland_whispers",
                  "show_in_tooltip":true
                }
              }
            }
          ]
        }
      ]
    }
  ]
}


