{
  "pools": [
    {
      "rolls": 1,
      "entries": [
        {
          "type": "minecraft:item",
          "name": "minecraft:iron_nugget",
          "functions": [
            {
              "function": "minecraft:set_name",
              "name": {
                "translate":"item.wishlist.pot",
                "italic": false
              }
            },
            {
              "function": "minecraft:set_components",
              "components": {
                "minecraft:custom_model_data": { "floats": [ 628319 ] },
                "minecraft:custom_data":{"wishlist_cookware":{"id":"pot"}}
              }
            }
          ]
        }
      ]
    }
  ]
}


