{
  "display": {
    "icon": {
      "id": "minecraft:written_book",
      "components": {
        "minecraft:custom_model_data": { "floats": [ 271832 ] }
      }
    },
    "title": {"translate":"wishlist.advancements.root.title"},
    "description": {"translate":"wishlist.advancements.root.description"},
    "background": "minecraft:textures/block/black_concrete.png",
    "show_toast": true,
    "announce_to_chat": true
  },
  "criteria": {
    "tick": {
      "trigger": "minecraft:tick"
    }
  }
}
