{
  "criteria": {
    "example": {
      "trigger": "minecraft:player_hurt_entity",
      "conditions": {
        "entity": {
          "type": "minecraft:interaction",
          "nbt": "{Tags:[wishlist.custom_block]}"
        }
      }
    }
  },
  "rewards": {
    "function": "custom_blocks:attack"
  }
}
