{
  "criteria": {
    "example": {
      "trigger": "minecraft:item_used_on_block",
      "conditions": {
        "location": [
          {
            "condition": "minecraft:match_tool",
            "predicate": {
              "items": "minecraft:item_frame"
            }
          }
        ]
      }
    }
  },
  "rewards": {
    "function": "custom_blocks:place"
  }
}
