{
  "credit": "Made with Blockbench",
  "textures": {
    "0": "dungeons:block/dungeon_big_lock",
    "particle": "dungeons:block/dungeon_big_lock"
  },
  "elements": [
    {
      "from": [-8, -8, 6],
      "to": [24, 24, 10],
      "faces": {
        "north": {"uv": [0, 0, 16, 16], "texture": "#0"},
        "south": {"uv": [0, 0, 16, 16], "texture": "#0"}
      }
    }
  ]
}
