{
  "display": {
    "icon": {
      "id": "minecraft:oak_sign",
      "components": {
        "minecraft:custom_model_data": { "floats": [ 271845 ] }
      }
    },
    "title": {"translate":"wishlist.advancements.chat_with_mob.title"},
    "description": {"translate":"wishlist.advancements.chat_with_mob.description"},
    "show_toast": true,
    "announce_to_chat": true
  },
  "parent": "wishlist:meet_chatterbox",
  "criteria": {
    "chat_with_mob": {
      "trigger": "minecraft:player_interacted_with_entity",
      "conditions": {
        "entity":{
          "type":"minecraft:interaction",
          "nbt":"{Tags:[wishlist.fake]}"
        }
      }
    }
  }
}
