{
  "display": {
    "icon": {
      "id": "minecraft:oak_sign",
      "components": {
        "minecraft:custom_model_data": { "floats": [ 271845 ] }
      }
    },
    "title": {"translate":"wishlist.advancements.meet_chatterbox.title"},
    "description": {"translate":"wishlist.advancements.meet_chatterbox.description"},
    "show_toast": true,
    "announce_to_chat": true
  },
  "parent": "wishlist:root",
  "criteria": {
    "have_magic_egg": {
      "trigger": "minecraft:impossible"
    }
  }
}

