{
  "pools": [
    {
      "rolls": 1,
      "entries": [
        {
          "type": "minecraft:item",
          "name": "minecraft:written_book",
          "functions": [
            {
              "function": "minecraft:set_book_cover",
              "author":"Anonymous",
              "generation":3,
              "title":"Book of Bù"
            },
            {
              "function": "minecraft:set_components",
              "components": {
                "minecraft:custom_model_data": { "floats": [ 271828 ] },
                "minecraft:custom_data":{"wishlist_grimoire":[]},
                "minecraft:damage_resistant":{"types":"#minecraft:is_fire"}
              }
            }
          ]
        }
      ]
    }
  ]
}

