{
  "criteria": {
    "example": {
      "trigger": "minecraft:player_interacted_with_entity",
      "conditions": {
        "item": {
          "items": [
            "minecraft:gold_ingot"
          ]
        },
        "entity": {
          "type": "minecraft:piglin"
        }
      }
    }
  },
  "rewards": {
    "function": "better_gossip:barter_with_piglin"
  }
}
