{
  "criteria": {
    "example": {
      "trigger": "minecraft:player_hurt_entity",
      "conditions": {
        "entity": {
          "type": "minecraft:villager"
        }
      }
    }
  },
  "rewards": {
    "function": "better_gossip:hurt_villager"
  }
}
