{
  "criteria": {
    "example": {
      "trigger": "minecraft:inventory_changed",
      "conditions": {
        "items": [
          {
            "items":[
              "minecraft:cobblestone",
              "minecraft:blackstone",
              "minecraft:deepslate"
            ]
          }
        ]
      }
    }
  },
  "rewards": {
    "recipes": [
      "stiletto:stone_stiletto"
    ]
  }
}

