{
  "criteria": {
    "example": {
      "trigger": "minecraft:player_interacted_with_entity",
      "conditions": {
        "item": {
          "items":["minecraft:water_bucket"]
        },
        "entity": {
          "type": "minecraft:interaction",
          "nbt": "{Tags:[wishlist.sink]}"
        }
      }
    }
  },
  "rewards": {
    "function": "better_recipes:empty_bucket"
  }
}



