{
  "type": "minecraft:crafting_shapeless",
  "category": "equipment",
  "ingredients": [
    "#minecraft:planks",
    "minecraft:paper",
    "minecraft:paper",
    "minecraft:paper"
  ],
  "result": {
    "id": "minecraft:written_book",
    "count": 1,
    "components": {
      "minecraft:custom_model_data": { "floats": [ 271833 ] },
      "minecraft:written_book_content":{
        "resolved":true,
        "generation":3,
        "author":"Anonymous",
        "title":"Clipboard"
      },
      "minecraft:enchantment_glint_override":false,
      "minecraft:custom_data": {
        "wishlist_clipboard": true
      }
    }
  }
}
