{
  "criteria": {
    "example": {
      "trigger": "minecraft:inventory_changed",
      "conditions": {
        "items": [
          {
            "items": "minecraft:ender_eye"
          }
        ]
      }
    }
  },
  "rewards": {
    "recipes": [
      "aura_lens:aura_lens"
    ]
  }
}

