{
  "display": {
    "icon": {
      "id": "minecraft:carrot_on_a_stick",
      "components":{
        "minecraft:custom_model_data": { "floats": [ 271840 ] }
      }
    },
    "title": {"translate":"wishlist.advancements.place_map_core.title"},
    "description": {"translate":"wishlist.advancements.place_map_core.description"},
    "show_toast": true,
    "announce_to_chat": true
  },
  "parent": "wishlist:use_skip",
  "criteria": {
    "have_magic_egg": {
      "trigger": "minecraft:item_used_on_block",
      "conditions": {
        "location": [
          {
            "condition": "minecraft:match_tool",
            "predicate": {
              "items": "minecraft:item_frame",
              "components": {
                "minecraft:entity_data": {
                  "id":"minecraft:item_frame",
                  "Tags":["wishlist.block","map_core"]
                }
              }
            }
          }
        ]
      }
    }
  }
}
