{
  "display": {
    "icon": {
      "id": "minecraft:carrot_on_a_stick",
      "components":{
        "minecraft:custom_model_data": { "floats": [ 271840 ] }
      }
    },
    "title": {"translate":"wishlist.advancements.use_skip_coords.title"},
    "description": {"translate":"wishlist.advancements.use_skip_coords.description"},
    "show_toast": true,
    "announce_to_chat": true
  },
  "parent": "wishlist:use_skip",
  "criteria": {
    "have_magic_egg": {
      "trigger": "minecraft:impossible"
    }
  }
}

