{
  "condition": "minecraft:entity_properties",
  "entity": "this",
  "predicate": {
    "equipment": {
      "mainhand": {
        "items": "minecraft:carrot_on_a_stick",
        "predicates":{
          "minecraft:custom_data":{"wishlist_magic":{"id":"dungeons:use_small_key"}}
        }
      }
    }
  }
}
