{
  "criteria": {
    "example": {
      "trigger": "minecraft:player_interacted_with_entity",
      "conditions": {
        "entity": {
          "type": "minecraft:interaction",
          "nbt": "{Tags:[wishlist.fake]}"
        }
      }
    }
  },
  "rewards": {
    "function": "chatterbox:interact"
  }
}
