{
  "display": {
    "icon": {
      "id": "minecraft:glass"
    },
    "title": {"translate":"wishlist.advancements.create_item_display.title"},
    "description": {"translate":"wishlist.advancements.create_item_display.description"},
    "show_toast": true,
    "announce_to_chat": true
  },
  "parent": "wishlist:root",
  "criteria": {
    "have_magic_egg": {
      "trigger": "minecraft:impossible"
    }
  }
}


