{
  "pools": [
    {
      "rolls": 1,
      "entries": [
        {
          "type": "minecraft:item",
          "name": "minecraft:carrot_on_a_stick",
          "functions": [
            {
              "function": "minecraft:set_name",
              "name": {
                "translate":"item.wishlist.place_bait",
                "italic": false
              }
            },
            {
              "function": "minecraft:set_components",
              "components": {
                "minecraft:custom_model_data": { "floats": [ 271830 ] },
                "minecraft:unbreakable":{"show_in_tooltip":false},
                "minecraft:custom_data":{"wishlist_magic":{"id":"bait:place_bait","args":{}}}
              }
            }
          ]
        }
      ]
    }
  ]
}
