# trigger_2.mcfunction

scoreboard players set @s wishlist.entity_profiling.filter 0
function entity_profiling:trigger_1
scoreboard players set @s wishlist.entity_profiling.filter 1
function entity_profiling:trigger_1
scoreboard players set @s wishlist.entity_profiling.filter 2
function entity_profiling:trigger_1
scoreboard players set @s wishlist.entity_profiling.filter 3
function entity_profiling:trigger_1
scoreboard players set @s wishlist.entity_profiling.filter 4
function entity_profiling:trigger_1
scoreboard players set @s wishlist.entity_profiling.filter 5
function entity_profiling:trigger_1
scoreboard players set @s wishlist.entity_profiling.filter 6
function entity_profiling:trigger_1
scoreboard players set @s wishlist.entity_profiling.filter 7
function entity_profiling:trigger_1
scoreboard players set @s wishlist.entity_profiling.filter 8
function entity_profiling:trigger_1
scoreboard players set @s wishlist.entity_profiling.filter -1
