{
  "criteria": {
    "step_on_lava_in_superhot_biome": {
      "trigger": "minecraft:location",
      "conditions": {
        "player": [
          {
            "condition": "minecraft:entity_properties",
            "entity": "this",
            "predicate": {
              "location": {
                "biomes": "wishlist:superhot",
                "block": {
                  "blocks": [
                    "minecraft:lava",
                    "minecraft:lava_cauldron"
                  ]
                }
              }
            }
          }
        ]
      }
    }
  },
  "rewards": {
    "function": "extreme_biomes:superhot_lava"
  }
}
