{
  "criteria": {
    "example": {
      "trigger": "minecraft:player_hurt_entity",
      "conditions": {
        "entity": {
          "type": "minecraft:interaction",
          "nbt": "{Tags:[wishlist.dungeon.pot]}"
        }
      }
    }
  },
  "rewards": {
    "function": "dungeons:break_pot"
  }
}


