{
  "condition": "minecraft:entity_properties",
  "entity": "this",
  "predicate": {
    "equipment": {
      "mainhand": {
        "items": "minecraft:carrot_on_a_stick",
        "components":{
          "minecraft:custom_model_data":271831
        }
      }
    }
  }
}
