{"values":[
        "minecraft:bee",
        "minecraft:cave_spider",
        "minecraft:dolphin",
        "minecraft:enderman",
        "minecraft:goat",
        "minecraft:iron_golem",
        "minecraft:llama",
        "minecraft:panda",
        "minecraft:piglin",
        "minecraft:polar_bear",
        "minecraft:spider",
        "minecraft:trader_llama",
        "minecraft:wolf",
        "minecraft:zombified_piglin"
]}
